simulation/qsim/Features_Monitor.msim.vcd
$comment
	File created using the following command:
		vcd file Features_Monitor.msim.vcd -direction
$end
$date
	Wed Oct  2 15:01:07 2024
$end
$version
	ModelSim Version 2020.1
$end
$timescale
	1ps
$end

$scope module input_control_vhd_vec_tst $end
$var wire 1 ! out_alt [7] $end
$var wire 1 " out_alt [6] $end
$var wire 1 # out_alt [5] $end
$var wire 1 $ out_alt [4] $end
$var wire 1 % out_alt [3] $end
$var wire 1 & out_alt [2] $end
$var wire 1 ' out_alt [1] $end
$var wire 1 ( out_alt [0] $end
$var wire 1 ) out_temp [7] $end
$var wire 1 * out_temp [6] $end
$var wire 1 + out_temp [5] $end
$var wire 1 , out_temp [4] $end
$var wire 1 - out_temp [3] $end
$var wire 1 . out_temp [2] $end
$var wire 1 / out_temp [1] $end
$var wire 1 0 out_temp [0] $end
$var wire 1 1 out_umi [7] $end
$var wire 1 2 out_umi [6] $end
$var wire 1 3 out_umi [5] $end
$var wire 1 4 out_umi [4] $end
$var wire 1 5 out_umi [3] $end
$var wire 1 6 out_umi [2] $end
$var wire 1 7 out_umi [1] $end
$var wire 1 8 out_umi [0] $end
$var wire 1 9 switches [7] $end
$var wire 1 : switches [6] $end
$var wire 1 ; switches [5] $end
$var wire 1 < switches [4] $end
$var wire 1 = switches [3] $end
$var wire 1 > switches [2] $end
$var wire 1 ? switches [1] $end
$var wire 1 @ switches [0] $end
$var wire 1 A switches_sel [2] $end
$var wire 1 B switches_sel [1] $end
$var wire 1 C switches_sel [0] $end

$scope module i1 $end
$var wire 1 D gnd $end
$var wire 1 E vcc $end
$var wire 1 F unknown $end
$var wire 1 G devoe $end
$var wire 1 H devclrn $end
$var wire 1 I devpor $end
$var wire 1 J ww_devoe $end
$var wire 1 K ww_devclrn $end
$var wire 1 L ww_devpor $end
$var wire 1 M ww_switches [7] $end
$var wire 1 N ww_switches [6] $end
$var wire 1 O ww_switches [5] $end
$var wire 1 P ww_switches [4] $end
$var wire 1 Q ww_switches [3] $end
$var wire 1 R ww_switches [2] $end
$var wire 1 S ww_switches [1] $end
$var wire 1 T ww_switches [0] $end
$var wire 1 U ww_switches_sel [2] $end
$var wire 1 V ww_switches_sel [1] $end
$var wire 1 W ww_switches_sel [0] $end
$var wire 1 X ww_out_temp [7] $end
$var wire 1 Y ww_out_temp [6] $end
$var wire 1 Z ww_out_temp [5] $end
$var wire 1 [ ww_out_temp [4] $end
$var wire 1 \ ww_out_temp [3] $end
$var wire 1 ] ww_out_temp [2] $end
$var wire 1 ^ ww_out_temp [1] $end
$var wire 1 _ ww_out_temp [0] $end
$var wire 1 ` ww_out_alt [7] $end
$var wire 1 a ww_out_alt [6] $end
$var wire 1 b ww_out_alt [5] $end
$var wire 1 c ww_out_alt [4] $end
$var wire 1 d ww_out_alt [3] $end
$var wire 1 e ww_out_alt [2] $end
$var wire 1 f ww_out_alt [1] $end
$var wire 1 g ww_out_alt [0] $end
$var wire 1 h ww_out_umi [7] $end
$var wire 1 i ww_out_umi [6] $end
$var wire 1 j ww_out_umi [5] $end
$var wire 1 k ww_out_umi [4] $end
$var wire 1 l ww_out_umi [3] $end
$var wire 1 m ww_out_umi [2] $end
$var wire 1 n ww_out_umi [1] $end
$var wire 1 o ww_out_umi [0] $end
$var wire 1 p \out_temp[0]~output_o\ $end
$var wire 1 q \out_temp[1]~output_o\ $end
$var wire 1 r \out_temp[2]~output_o\ $end
$var wire 1 s \out_temp[3]~output_o\ $end
$var wire 1 t \out_temp[4]~output_o\ $end
$var wire 1 u \out_temp[5]~output_o\ $end
$var wire 1 v \out_temp[6]~output_o\ $end
$var wire 1 w \out_temp[7]~output_o\ $end
$var wire 1 x \out_alt[0]~output_o\ $end
$var wire 1 y \out_alt[1]~output_o\ $end
$var wire 1 z \out_alt[2]~output_o\ $end
$var wire 1 { \out_alt[3]~output_o\ $end
$var wire 1 | \out_alt[4]~output_o\ $end
$var wire 1 } \out_alt[5]~output_o\ $end
$var wire 1 ~ \out_alt[6]~output_o\ $end
$var wire 1 !! \out_alt[7]~output_o\ $end
$var wire 1 "! \out_umi[0]~output_o\ $end
$var wire 1 #! \out_umi[1]~output_o\ $end
$var wire 1 $! \out_umi[2]~output_o\ $end
$var wire 1 %! \out_umi[3]~output_o\ $end
$var wire 1 &! \out_umi[4]~output_o\ $end
$var wire 1 '! \out_umi[5]~output_o\ $end
$var wire 1 (! \out_umi[6]~output_o\ $end
$var wire 1 )! \out_umi[7]~output_o\ $end
$var wire 1 *! \switches[0]~input_o\ $end
$var wire 1 +! \switches_sel[0]~input_o\ $end
$var wire 1 ,! \switches_sel[1]~input_o\ $end
$var wire 1 -! \switches_sel[2]~input_o\ $end
$var wire 1 .! \Mux26~0_combout\ $end
$var wire 1 /! \out_temp[0]$latch~combout\ $end
$var wire 1 0! \switches[1]~input_o\ $end
$var wire 1 1! \out_temp[1]$latch~combout\ $end
$var wire 1 2! \switches[2]~input_o\ $end
$var wire 1 3! \out_temp[2]$latch~combout\ $end
$var wire 1 4! \switches[3]~input_o\ $end
$var wire 1 5! \out_temp[3]$latch~combout\ $end
$var wire 1 6! \switches[4]~input_o\ $end
$var wire 1 7! \out_temp[4]$latch~combout\ $end
$var wire 1 8! \switches[5]~input_o\ $end
$var wire 1 9! \out_temp[5]$latch~combout\ $end
$var wire 1 :! \switches[6]~input_o\ $end
$var wire 1 ;! \out_temp[6]$latch~combout\ $end
$var wire 1 <! \switches[7]~input_o\ $end
$var wire 1 =! \out_temp[7]$latch~combout\ $end
$var wire 1 >! \Mux8~0_combout\ $end
$var wire 1 ?! \out_alt[0]$latch~combout\ $end
$var wire 1 @! \out_alt[1]$latch~combout\ $end
$var wire 1 A! \out_alt[2]$latch~combout\ $end
$var wire 1 B! \out_alt[3]$latch~combout\ $end
$var wire 1 C! \out_alt[4]$latch~combout\ $end
$var wire 1 D! \out_alt[5]$latch~combout\ $end
$var wire 1 E! \out_alt[6]$latch~combout\ $end
$var wire 1 F! \out_alt[7]$latch~combout\ $end
$var wire 1 G! \Mux17~0_combout\ $end
$var wire 1 H! \out_umi[0]$latch~combout\ $end
$var wire 1 I! \out_umi[1]$latch~combout\ $end
$var wire 1 J! \out_umi[2]$latch~combout\ $end
$var wire 1 K! \out_umi[3]$latch~combout\ $end
$var wire 1 L! \out_umi[4]$latch~combout\ $end
$var wire 1 M! \out_umi[5]$latch~combout\ $end
$var wire 1 N! \out_umi[6]$latch~combout\ $end
$var wire 1 O! \out_umi[7]$latch~combout\ $end
$upscope $end
$upscope $end
$enddefinitions $end
#0
$dumpvars
0D
1E
xF
1G
1H
1I
1J
1K
1L
0p
0q
1r
0s
0t
1u
0v
1w
xx
xy
xz
x{
x|
x}
x~
x!!
x"!
x#!
x$!
x%!
x&!
x'!
x(!
x)!
0*!
1+!
0,!
0-!
1.!
0/!
00!
01!
12!
13!
04!
05!
06!
07!
18!
19!
0:!
0;!
1<!
1=!
0>!
x?!
x@!
xA!
xB!
xC!
xD!
xE!
xF!
0G!
xH!
xI!
xJ!
xK!
xL!
xM!
xN!
xO!
19
0:
1;
0<
0=
1>
0?
0@
0A
0B
1C
1)
0*
1+
0,
0-
1.
0/
00
x!
x"
x#
x$
x%
x&
x'
x(
x1
x2
x3
x4
x5
x6
x7
x8
1M
0N
1O
0P
0Q
1R
0S
0T
0U
0V
1W
1X
0Y
1Z
0[
0\
1]
0^
0_
x`
xa
xb
xc
xd
xe
xf
xg
xh
xi
xj
xk
xl
xm
xn
xo
$end
#100000
1<
1?
1@
1T
1S
1P
16!
10!
1*!
1/!
11!
17!
1t
1q
1p
1[
1^
1_
10
1/
1,
#200000
0@
09
1:
0;
1=
0>
0T
0R
1Q
0O
1N
0M
0<!
1:!
08!
14!
02!
0*!
0/!
03!
15!
09!
1;!
0=!
0w
1v
0u
1s
0r
0p
0X
1Y
0Z
1\
0]
0_
00
0.
1-
0+
1*
0)
#300000
1;
0=
1>
1B
0C
1R
0Q
1O
0W
1V
1,!
0+!
18!
04!
12!
13!
05!
19!
0.!
1G!
0H!
1I!
1J!
0K!
1L!
1M!
1N!
0O!
1u
0s
1r
1Z
0\
1]
0)!
1(!
1'!
1&!
0%!
1$!
1#!
0"!
1.
0-
1+
0h
1i
1j
1k
0l
1m
1n
0o
08
17
16
05
14
13
12
01
#400000
0;
19
0:
0?
0S
0O
0N
1M
1<!
0:!
08!
00!
0I!
0M!
0N!
1O!
1)!
0(!
0'!
0#!
1h
0i
0j
0n
07
03
02
11
#500000
1:
0>
0<
0R
0P
1N
1:!
06!
02!
0J!
0L!
1N!
1(!
0&!
0$!
1i
0k
0m
06
04
12
#600000
0:
1<
09
1?
0B
1A
1S
1P
0N
0M
0V
1U
1-!
0,!
0<!
0:!
16!
10!
1I!
1L!
0N!
0O!
1>!
0G!
0?!
1@!
0A!
0B!
1C!
0D!
0E!
0F!
0)!
0(!
1&!
1#!
0h
0i
1k
1n
0!!
0~
0}
1|
0{
0z
1y
0x
17
14
02
01
0`
0a
0b
1c
0d
0e
1f
0g
0(
1'
0&
0%
1$
0#
0"
0!
#700000
19
0?
1>
0S
1R
1M
1<!
12!
00!
0@!
1A!
1F!
1!!
1z
0y
1`
1e
0f
0'
1&
1!
#800000
09
1:
0<
1=
1Q
0P
1N
0M
0<!
1:!
06!
14!
1B!
0C!
1E!
0F!
0!!
1~
0|
1{
0`
1a
0c
1d
1%
0$
1"
0!
#900000
1<
0=
0>
0A
0R
0Q
1P
0U
0-!
16!
04!
02!
0A!
0B!
1C!
0>!
1|
0{
0z
1c
0d
0e
0&
0%
1$
